{
  "name": "Audino",
  "nationalPokedexNumber": 531,
  "primaryType": "normal",
  "abilities": [
    "healer",
    "regenerator",
    "h:klutz"
  ],
  "drops": {
    "amount": 1,
    "entries": [
      {
        "item": "cobblemon:oran_berry",
        "percentage": 10.0
      },
      {
        "item": "cobblemon:fairy_feather",
        "percentage": 10.0
      }
    ]
  },
  "baseStats": {
    "hp": 103,
    "attack": 60,
    "defence": 86,
    "special_attack": 60,
    "special_defence": 86,
    "speed": 50
  },
  "catchRate": 255,
  "maleRatio": 0.5,
  "shoulderMountable": false,
  "forms": [
    {
      "name": "Mega",
      "primaryType": "normal",
      "secondaryType": "fairy",
      "abilities": [
        "healer"
      ],
      "baseStats": {
        "hp": 103,
        "attack": 60,
        "defence": 126,
        "special_attack": 80,
        "special_defence": 126,
        "speed": 50
      },
      "catchRate": 255,
      "maleRatio": 0.5,
      "baseExperienceYield": 390,
      "baseFriendship": 50,
      "evYield": {
        "hp": 2,
        "attack": 0,
        "defence": 0,
        "special_attack": 0,
        "special_defence": 0,
        "speed": 0
      },
      "experienceGroup": "fast",
      "eggCycles": 20,
      "eggGroups": [
        "fairy"
      ],
      "labels": [
        "gen6",
        "mega"
      ],
      "aspects": [
        "mega"
      ],
      "height": 15,
      "weight": 320,
      "evolutions": [],
      "cannotDynamax": false,
      "battleOnly": true
    }
  ],
  "baseExperienceYield": 390,
  "experienceGroup": "fast",
  "eggCycles": 20,
  "eggGroups": [
    "fairy"
  ],
  "moves": [
    "1:playnice",
    "1:pound",
    "4:disarmingvoice",
    "9:babydolleyes",
    "9:refresh",
    "12:helpinghand",
    "16:growl",
    "17:doubleslap",
    "20:zenheadbutt",
    "21:attract",
    "24:lifedew",
    "25:secretpower",
    "28:afteryou",
    "32:takedown",
    "36:simplebeam",
    "40:hypervoice",
    "44:healpulse",
    "48:doubleedge",
    "52:entrainment",
    "56:mistyterrain",
    "60:lastresort",
    "egg:amnesia",
    "egg:bestow",
    "egg:drainingkiss",
    "egg:encore",
    "egg:healbell",
    "egg:healingwish",
    "egg:luckychant",
    "egg:sleeptalk",
    "egg:sweetkiss",
    "egg:wish",
    "egg:yawn",
    "tm:allyswitch",
    "tm:amnesia",
    "tm:attract",
    "tm:blizzard",
    "tm:bodyslam",
    "tm:calmmind",
    "tm:chargebeam",
    "tm:confide",
    "tm:dazzlinggleam",
    "tm:dig",
    "tm:doubleteam",
    "tm:drainingkiss",
    "tm:drainpunch",
    "tm:dreameater",
    "tm:echoedvoice",
    "tm:encore",
    "tm:endure",
    "tm:facade",
    "tm:fireblast",
    "tm:firepunch",
    "tm:flamethrower",
    "tm:flash",
    "tm:fling",
    "tm:frustration",
    "tm:gigaimpact",
    "tm:grassknot",
    "tm:helpinghand",
    "tm:hiddenpower",
    "tm:hyperbeam",
    "tm:hypervoice",
    "tm:icebeam",
    "tm:icepunch",
    "tm:icywind",
    "tm:incinerate",
    "tm:irontail",
    "tm:lightscreen",
    "tm:lowkick",
    "tm:megakick",
    "tm:megapunch",
    "tm:mistyterrain",
    "tm:poweruppunch",
    "tm:protect",
    "tm:psychic",
    "tm:psychup",
    "tm:psyshock",
    "tm:raindance",
    "tm:reflect",
    "tm:rest",
    "tm:retaliate",
    "tm:return",
    "tm:round",
    "tm:safeguard",
    "tm:secretpower",
    "tm:shadowball",
    "tm:skillswap",
    "tm:sleeptalk",
    "tm:snore",
    "tm:solarbeam",
    "tm:stompingtantrum",
    "tm:substitute",
    "tm:sunnyday",
    "tm:surf",
    "tm:swagger",
    "tm:telekinesis",
    "tm:throatchop",
    "tm:thunder",
    "tm:thunderbolt",
    "tm:thunderpunch",
    "tm:thunderwave",
    "tm:toxic",
    "tm:trickroom",
    "tm:uproar",
    "tm:wildcharge",
    "tm:workup",
    "tm:zenheadbutt",
    "tutor:afteryou",
    "tutor:allyswitch",
    "tutor:covet",
    "tutor:doubleslap",
    "tutor:drainpunch",
    "tutor:encore",
    "tutor:firepunch",
    "tutor:focuspunch",
    "tutor:gravity",
    "tutor:healbell",
    "tutor:healpulse",
    "tutor:helpinghand",
    "tutor:hypervoice",
    "tutor:icepunch",
    "tutor:icywind",
    "tutor:irontail",
    "tutor:knockoff",
    "tutor:laserfocus",
    "tutor:lastresort",
    "tutor:lowkick",
    "tutor:magiccoat",
    "tutor:painsplit",
    "tutor:present",
    "tutor:refresh",
    "tutor:roleplay",
    "tutor:signalbeam",
    "tutor:simplebeam",
    "tutor:skillswap",
    "tutor:sleeptalk",
    "tutor:snatch",
    "tutor:snore",
    "tutor:stompingtantrum",
    "tutor:telekinesis",
    "tutor:throatchop",
    "tutor:thunderbolt",
    "tutor:thunderpunch",
    "tutor:trickroom",
    "tutor:uproar",
    "tutor:yawn",
    "tutor:zenheadbutt"
  ],
  "labels": [
    "gen5"
  ],
  "pokedex": [
    "cobblemon.species.audino.desc"
  ],
  "evolutions": [],
  "baseScale": 1,
  "hitbox": {
    "width": 1,
    "height": 1,
    "fixed": false
  },
  "baseFriendship": 50,
  "evYield": {
    "hp": 2,
    "attack": 0,
    "defence": 0,
    "special_attack": 0,
    "special_defence": 0,
    "speed": 0
  },
  "height": 11,
  "weight": 310,
  "aspects": [],
  "cannotDynamax": false
}